<?xml version="1.0" encoding="UTF-8" standalone="no"?>
<svg
   version="1.1"
   id="svg2"
   width="564.79999"
   height="537.59998"
   viewBox="0 0 564.79999 537.59998"
   sodipodi:docname="fig3c.svg"
   inkscape:version="1.1.1 (3bf5ae0d25, 2021-09-20)"
   xmlns:inkscape="http://www.inkscape.org/namespaces/inkscape"
   xmlns:sodipodi="http://sodipodi.sourceforge.net/DTD/sodipodi-0.dtd"
   xmlns:xlink="http://www.w3.org/1999/xlink"
   xmlns="http://www.w3.org/2000/svg"
   xmlns:svg="http://www.w3.org/2000/svg"
   xmlns:rdf="http://www.w3.org/1999/02/22-rdf-syntax-ns#"
   xmlns:cc="http://creativecommons.org/ns#"
   xmlns:dc="http://purl.org/dc/elements/1.1/">
  <metadata
     id="metadata8">
    <rdf:RDF>
      <cc:Work
         rdf:about="">
        <dc:format>image/svg+xml</dc:format>
        <dc:type
           rdf:resource="http://purl.org/dc/dcmitype/StillImage" />
      </cc:Work>
    </rdf:RDF>
  </metadata>
  <defs
     id="defs6">
    <marker
       inkscape:isstock="true"
       style="overflow:visible"
       id="marker1182"
       refX="0"
       refY="0"
       orient="auto"
       inkscape:stockid="Arrow1Send">
      <path
         transform="matrix(-0.2,0,0,-0.2,-1.2,0)"
         style="fill:#ff0000;fill-opacity:1;fill-rule:evenodd;stroke:#ff0000;stroke-width:1pt;stroke-opacity:1"
         d="M 0,0 5,-5 -12.5,0 5,5 Z"
         id="path1180"
         inkscape:connector-curvature="0" />
    </marker>
    <marker
       inkscape:isstock="true"
       style="overflow:visible"
       id="marker1182-9"
       refX="0"
       refY="0"
       orient="auto"
       inkscape:stockid="Arrow1Send">
      <path
         transform="matrix(-0.2,0,0,-0.2,-1.2,0)"
         style="fill:#ff0000;fill-opacity:1;fill-rule:evenodd;stroke:#ff0000;stroke-width:1pt;stroke-opacity:1"
         d="M 0,0 5,-5 -12.5,0 5,5 Z"
         id="path1180-6"
         inkscape:connector-curvature="0" />
    </marker>
    <marker
       inkscape:isstock="true"
       style="overflow:visible"
       id="marker1182-4"
       refX="0"
       refY="0"
       orient="auto"
       inkscape:stockid="Arrow1Send">
      <path
         transform="matrix(-0.2,0,0,-0.2,-1.2,0)"
         style="fill:#ff0000;fill-opacity:1;fill-rule:evenodd;stroke:#ff0000;stroke-width:1pt;stroke-opacity:1"
         d="M 0,0 5,-5 -12.5,0 5,5 Z"
         id="path1180-9"
         inkscape:connector-curvature="0" />
    </marker>
    <marker
       inkscape:isstock="true"
       style="overflow:visible"
       id="marker1182-0"
       refX="0"
       refY="0"
       orient="auto"
       inkscape:stockid="Arrow1Send">
      <path
         transform="matrix(-0.2,0,0,-0.2,-1.2,0)"
         style="fill:#ff0000;fill-opacity:1;fill-rule:evenodd;stroke:#ff0000;stroke-width:1pt;stroke-opacity:1"
         d="M 0,0 5,-5 -12.5,0 5,5 Z"
         id="path1180-1"
         inkscape:connector-curvature="0" />
    </marker>
    <marker
       inkscape:isstock="true"
       style="overflow:visible"
       id="marker1182-4-1"
       refX="0"
       refY="0"
       orient="auto"
       inkscape:stockid="Arrow1Send">
      <path
         transform="matrix(-0.2,0,0,-0.2,-1.2,0)"
         style="fill:#ff0000;fill-opacity:1;fill-rule:evenodd;stroke:#ff0000;stroke-width:1pt;stroke-opacity:1"
         d="M 0,0 5,-5 -12.5,0 5,5 Z"
         id="path1180-9-2"
         inkscape:connector-curvature="0" />
    </marker>
  </defs>
  <sodipodi:namedview
     pagecolor="#ffffff"
     bordercolor="#666666"
     borderopacity="1"
     objecttolerance="10"
     gridtolerance="10"
     guidetolerance="10"
     inkscape:pageopacity="0"
     inkscape:pageshadow="2"
     inkscape:window-width="1920"
     inkscape:window-height="1001"
     id="namedview4"
     showgrid="false"
     inkscape:zoom="1.4564733"
     inkscape:cx="282.18849"
     inkscape:cy="268.79999"
     inkscape:current-layer="layer3"
     fit-margin-top="0"
     fit-margin-left="0"
     fit-margin-right="0"
     fit-margin-bottom="0"
     inkscape:document-rotation="0"
     inkscape:pagecheckerboard="0"
     inkscape:window-x="-9"
     inkscape:window-y="-9"
     inkscape:window-maximized="1" />
  <g
     inkscape:groupmode="layer"
     id="layer4"
     inkscape:label="figure"
     transform="translate(1450.5176,1066.8678)"
     style="display:inline"
     sodipodi:insensitive="true">
    <image
       width="564.79999"
       height="537.59998"
       preserveAspectRatio="none"
       xlink:href="fig3.png"
       id="image987"
       x="-1450.5176"
       y="-1066.8678" />
  </g>
  <g
     inkscape:groupmode="layer"
     id="layer2"
     inkscape:label="x_axis"
     style="display:inline;opacity:1"
     transform="translate(1450.5176,1066.8678)"
     sodipodi:insensitive="true">
    <g
       id="g1149"
       transform="translate(-1459.7995,-1010.8971)">
      <text
         id="text1115"
         y="403.3284"
         x="110.89665"
         style="font-style:normal;font-weight:normal;font-size:24px;line-height:125%;font-family:sans-serif;letter-spacing:0px;word-spacing:0px;fill:#000000;fill-opacity:1;stroke:none;stroke-width:1px;stroke-linecap:butt;stroke-linejoin:miter;stroke-opacity:1"
         xml:space="preserve"><tspan
           style="font-size:10.6667px"
           y="403.3284"
           x="110.89665"
           id="tspan1113"
           sodipodi:role="line">42</tspan></text>
      <path
         inkscape:connector-curvature="0"
         id="path1103"
         d="m 114.2925,380.61526 v 12.46996"
         style="opacity:1;fill:none;fill-opacity:1;stroke:#ff0000;stroke-width:3;stroke-linecap:butt;stroke-miterlimit:4;stroke-dasharray:none;stroke-dashoffset:0;stroke-opacity:1" />
    </g>
    <g
       id="g2318"
       transform="translate(-1431.3006,-1010.8971)">
      <text
         id="text2314"
         y="403.3284"
         x="110.89665"
         style="font-style:normal;font-weight:normal;font-size:24px;line-height:125%;font-family:sans-serif;letter-spacing:0px;word-spacing:0px;fill:#000000;fill-opacity:1;stroke:none;stroke-width:1px;stroke-linecap:butt;stroke-linejoin:miter;stroke-opacity:1"
         xml:space="preserve"><tspan
           style="font-size:10.6667px"
           y="403.3284"
           x="110.89665"
           id="tspan2312"
           sodipodi:role="line">47</tspan></text>
      <path
         inkscape:connector-curvature="0"
         id="path2316"
         d="m 114.2925,380.61526 v 12.46996"
         style="opacity:1;fill:none;fill-opacity:1;stroke:#ff0000;stroke-width:3;stroke-linecap:butt;stroke-miterlimit:4;stroke-dasharray:none;stroke-dashoffset:0;stroke-opacity:1" />
    </g>
    <g
       id="g2962"
       transform="translate(-1380.4983,-1010.8971)">
      <text
         id="text2958"
         y="403.3284"
         x="110.89665"
         style="font-style:normal;font-weight:normal;font-size:24px;line-height:125%;font-family:sans-serif;letter-spacing:0px;word-spacing:0px;fill:#000000;fill-opacity:1;stroke:none;stroke-width:1px;stroke-linecap:butt;stroke-linejoin:miter;stroke-opacity:1"
         xml:space="preserve"><tspan
           style="font-size:10.6667px"
           y="403.3284"
           x="110.89665"
           id="tspan2956"
           sodipodi:role="line">0</tspan></text>
      <path
         inkscape:connector-curvature="0"
         id="path2960"
         d="m 114.2925,380.61526 v 12.46996"
         style="opacity:1;fill:none;fill-opacity:1;stroke:#ff0000;stroke-width:3;stroke-linecap:butt;stroke-miterlimit:4;stroke-dasharray:none;stroke-dashoffset:0;stroke-opacity:1" />
    </g>
    <g
       id="g3660"
       transform="translate(-1353.3512,-1010.8971)">
      <text
         id="text3656"
         y="403.3284"
         x="110.89665"
         style="font-style:normal;font-weight:normal;font-size:24px;line-height:125%;font-family:sans-serif;letter-spacing:0px;word-spacing:0px;fill:#000000;fill-opacity:1;stroke:none;stroke-width:1px;stroke-linecap:butt;stroke-linejoin:miter;stroke-opacity:1"
         xml:space="preserve"><tspan
           style="font-size:10.6667px"
           y="403.3284"
           x="110.89665"
           id="tspan3654"
           sodipodi:role="line">1</tspan></text>
      <path
         inkscape:connector-curvature="0"
         id="path3658"
         d="m 114.2925,380.61526 v 12.46996"
         style="opacity:1;fill:none;fill-opacity:1;stroke:#ff0000;stroke-width:3;stroke-linecap:butt;stroke-miterlimit:4;stroke-dasharray:none;stroke-dashoffset:0;stroke-opacity:1" />
    </g>
    <g
       id="g3668"
       transform="translate(-1327.4432,-1010.8971)">
      <text
         id="text3664"
         y="403.3284"
         x="110.89665"
         style="font-style:normal;font-weight:normal;font-size:24px;line-height:125%;font-family:sans-serif;letter-spacing:0px;word-spacing:0px;fill:#000000;fill-opacity:1;stroke:none;stroke-width:1px;stroke-linecap:butt;stroke-linejoin:miter;stroke-opacity:1"
         xml:space="preserve"><tspan
           style="font-size:10.6667px"
           y="403.3284"
           x="110.89665"
           id="tspan3662"
           sodipodi:role="line">2</tspan></text>
      <path
         inkscape:connector-curvature="0"
         id="path3666"
         d="m 114.2925,380.61526 v 12.46996"
         style="opacity:1;fill:none;fill-opacity:1;stroke:#ff0000;stroke-width:3;stroke-linecap:butt;stroke-miterlimit:4;stroke-dasharray:none;stroke-dashoffset:0;stroke-opacity:1" />
    </g>
    <g
       id="g3676"
       transform="translate(-1300.8593,-1010.8971)">
      <text
         id="text3672"
         y="403.3284"
         x="110.89665"
         style="font-style:normal;font-weight:normal;font-size:24px;line-height:125%;font-family:sans-serif;letter-spacing:0px;word-spacing:0px;fill:#000000;fill-opacity:1;stroke:none;stroke-width:1px;stroke-linecap:butt;stroke-linejoin:miter;stroke-opacity:1"
         xml:space="preserve"><tspan
           style="font-size:10.6667px"
           y="403.3284"
           x="110.89665"
           id="tspan3670"
           sodipodi:role="line">3</tspan></text>
      <path
         inkscape:connector-curvature="0"
         id="path3674"
         d="m 114.2925,380.61526 v 12.46996"
         style="opacity:1;fill:none;fill-opacity:1;stroke:#ff0000;stroke-width:3;stroke-linecap:butt;stroke-miterlimit:4;stroke-dasharray:none;stroke-dashoffset:0;stroke-opacity:1" />
    </g>
  </g>
  <g
     inkscape:groupmode="layer"
     id="layer1"
     inkscape:label="y_axis"
     style="display:inline;opacity:1"
     transform="translate(1450.5176,1066.8678)"
     sodipodi:insensitive="true">
    <path
       style="fill:none;fill-opacity:1;stroke:#ff0000;stroke-width:3;stroke-linecap:butt;stroke-miterlimit:4;stroke-dasharray:none;stroke-dashoffset:0;stroke-opacity:1;marker-end:url(#marker1182-0)"
       d="M -1369.72,-605.81803 V -1056.4572"
       id="path1172"
       inkscape:connector-curvature="0"
       sodipodi:nodetypes="cc" />
    <g
       id="g1272"
       transform="translate(-1474.2147,-982.06373)">
      <path
         inkscape:connector-curvature="0"
         id="path1208"
         d="M 98.259695,358.34747 H 110.72966"
         style="opacity:1;fill:none;fill-opacity:1;stroke:#ff0000;stroke-width:3;stroke-linecap:butt;stroke-miterlimit:4;stroke-dasharray:none;stroke-dashoffset:0;stroke-opacity:1" />
      <text
         id="text1222"
         y="363.19122"
         x="67.308731"
         style="font-style:normal;font-weight:normal;font-size:24px;line-height:125%;font-family:sans-serif;letter-spacing:0px;word-spacing:0px;fill:#000000;fill-opacity:1;stroke:none;stroke-width:1px;stroke-linecap:butt;stroke-linejoin:miter;stroke-opacity:1"
         xml:space="preserve"><tspan
           style="font-size:13.3333px"
           y="363.19122"
           x="67.308731"
           id="tspan1220"
           sodipodi:role="line">0</tspan></text>
    </g>
    <g
       id="g1020"
       transform="translate(-1474.2147,-1071.6168)">
      <path
         style="opacity:1;fill:none;fill-opacity:1;stroke:#ff0000;stroke-width:3;stroke-linecap:butt;stroke-miterlimit:4;stroke-dasharray:none;stroke-dashoffset:0;stroke-opacity:1"
         d="M 98.259695,299.30108 H 110.72966"
         id="path1014"
         inkscape:connector-curvature="0" />
      <text
         xml:space="preserve"
         style="font-style:normal;font-weight:normal;font-size:24px;line-height:125%;font-family:sans-serif;letter-spacing:0px;word-spacing:0px;fill:#000000;fill-opacity:1;stroke:none;stroke-width:1px;stroke-linecap:butt;stroke-linejoin:miter;stroke-opacity:1"
         x="59.78957"
         y="304.14484"
         id="text1018"><tspan
           sodipodi:role="line"
           id="tspan1016"
           x="59.78957"
           y="304.14484"
           style="font-size:13.3333px">100</tspan></text>
    </g>
  </g>
  <g
     inkscape:groupmode="layer"
     id="layer3"
     inkscape:label="nb_fruit">
    <path
       style="fill:none;stroke:#b10000;stroke-width:1px;stroke-linecap:butt;stroke-linejoin:miter;stroke-opacity:1"
       d="M 95.779305,361.31799 H 117.40689"
       id="path932" />
    <path
       style="fill:none;stroke:#b10000;stroke-width:1px;stroke-linecap:butt;stroke-linejoin:miter;stroke-opacity:1"
       d="m 122.04137,349.98925 h 21.62759"
       id="path932-8" />
    <path
       style="fill:none;stroke:#b10000;stroke-width:1px;stroke-linecap:butt;stroke-linejoin:miter;stroke-opacity:1"
       d="m 174.05057,396.84902 h 21.62758"
       id="path932-6" />
    <path
       style="fill:none;stroke:#b10000;stroke-width:1px;stroke-linecap:butt;stroke-linejoin:miter;stroke-opacity:1"
       d="m 200.14098,312.5701 h 21.62759"
       id="path932-3" />
    <path
       style="fill:none;stroke:#b10000;stroke-width:1px;stroke-linecap:butt;stroke-linejoin:miter;stroke-opacity:1"
       d="m 226.2314,362.17623 h 21.62759"
       id="path932-4" />
    <path
       style="fill:none;stroke:#b10000;stroke-width:1px;stroke-linecap:butt;stroke-linejoin:miter;stroke-opacity:1"
       d="m 252.49347,312.9134 h 21.62759"
       id="path932-34" />
  </g>
</svg>
