<?xml version="1.0" encoding="UTF-8" standalone="no"?>
<svg
   version="1.1"
   id="svg2"
   width="400"
   height="705.59998"
   viewBox="0 0 400 705.59998"
   sodipodi:docname="fig4c.svg"
   inkscape:version="1.1.1 (3bf5ae0d25, 2021-09-20)"
   xmlns:inkscape="http://www.inkscape.org/namespaces/inkscape"
   xmlns:sodipodi="http://sodipodi.sourceforge.net/DTD/sodipodi-0.dtd"
   xmlns:xlink="http://www.w3.org/1999/xlink"
   xmlns="http://www.w3.org/2000/svg"
   xmlns:svg="http://www.w3.org/2000/svg"
   xmlns:rdf="http://www.w3.org/1999/02/22-rdf-syntax-ns#"
   xmlns:cc="http://creativecommons.org/ns#"
   xmlns:dc="http://purl.org/dc/elements/1.1/">
  <metadata
     id="metadata8">
    <rdf:RDF>
      <cc:Work
         rdf:about="">
        <dc:format>image/svg+xml</dc:format>
        <dc:type
           rdf:resource="http://purl.org/dc/dcmitype/StillImage" />
      </cc:Work>
    </rdf:RDF>
  </metadata>
  <defs
     id="defs6">
    <marker
       inkscape:isstock="true"
       style="overflow:visible"
       id="marker1182"
       refX="0"
       refY="0"
       orient="auto"
       inkscape:stockid="Arrow1Send">
      <path
         transform="matrix(-0.2,0,0,-0.2,-1.2,0)"
         style="fill:#ff0000;fill-opacity:1;fill-rule:evenodd;stroke:#ff0000;stroke-width:1pt;stroke-opacity:1"
         d="M 0,0 5,-5 -12.5,0 5,5 Z"
         id="path1180"
         inkscape:connector-curvature="0" />
    </marker>
    <marker
       inkscape:stockid="Arrow1Send"
       orient="auto"
       refY="0"
       refX="0"
       id="Arrow1Send"
       style="overflow:visible"
       inkscape:isstock="true"
       inkscape:collect="always">
      <path
         id="path836"
         d="M 0,0 5,-5 -12.5,0 5,5 Z"
         style="fill:#ff0000;fill-opacity:1;fill-rule:evenodd;stroke:#ff0000;stroke-width:1pt;stroke-opacity:1"
         transform="matrix(-0.2,0,0,-0.2,-1.2,0)"
         inkscape:connector-curvature="0" />
    </marker>
    <marker
       inkscape:isstock="true"
       style="overflow:visible"
       id="marker1182-9"
       refX="0"
       refY="0"
       orient="auto"
       inkscape:stockid="Arrow1Send">
      <path
         transform="matrix(-0.2,0,0,-0.2,-1.2,0)"
         style="fill:#ff0000;fill-opacity:1;fill-rule:evenodd;stroke:#ff0000;stroke-width:1pt;stroke-opacity:1"
         d="M 0,0 5,-5 -12.5,0 5,5 Z"
         id="path1180-6"
         inkscape:connector-curvature="0" />
    </marker>
    <marker
       inkscape:isstock="true"
       style="overflow:visible"
       id="marker1182-4"
       refX="0"
       refY="0"
       orient="auto"
       inkscape:stockid="Arrow1Send">
      <path
         transform="matrix(-0.2,0,0,-0.2,-1.2,0)"
         style="fill:#ff0000;fill-opacity:1;fill-rule:evenodd;stroke:#ff0000;stroke-width:1pt;stroke-opacity:1"
         d="M 0,0 5,-5 -12.5,0 5,5 Z"
         id="path1180-9"
         inkscape:connector-curvature="0" />
    </marker>
    <marker
       inkscape:isstock="true"
       style="overflow:visible"
       id="marker1182-0"
       refX="0"
       refY="0"
       orient="auto"
       inkscape:stockid="Arrow1Send">
      <path
         transform="matrix(-0.2,0,0,-0.2,-1.2,0)"
         style="fill:#ff0000;fill-opacity:1;fill-rule:evenodd;stroke:#ff0000;stroke-width:1pt;stroke-opacity:1"
         d="M 0,0 5,-5 -12.5,0 5,5 Z"
         id="path1180-1"
         inkscape:connector-curvature="0" />
    </marker>
    <marker
       inkscape:isstock="true"
       style="overflow:visible"
       id="marker1182-4-1"
       refX="0"
       refY="0"
       orient="auto"
       inkscape:stockid="Arrow1Send">
      <path
         transform="matrix(-0.2,0,0,-0.2,-1.2,0)"
         style="fill:#ff0000;fill-opacity:1;fill-rule:evenodd;stroke:#ff0000;stroke-width:1pt;stroke-opacity:1"
         d="M 0,0 5,-5 -12.5,0 5,5 Z"
         id="path1180-9-2"
         inkscape:connector-curvature="0" />
    </marker>
  </defs>
  <sodipodi:namedview
     pagecolor="#ffffff"
     bordercolor="#666666"
     borderopacity="1"
     objecttolerance="10"
     gridtolerance="10"
     guidetolerance="10"
     inkscape:pageopacity="0"
     inkscape:pageshadow="2"
     inkscape:window-width="1920"
     inkscape:window-height="1001"
     id="namedview4"
     showgrid="false"
     inkscape:zoom="1.104025"
     inkscape:cx="200.17663"
     inkscape:cy="354.61154"
     inkscape:current-layer="layer3"
     fit-margin-top="0"
     fit-margin-left="0"
     fit-margin-right="0"
     fit-margin-bottom="0"
     inkscape:document-rotation="0"
     inkscape:pagecheckerboard="0"
     inkscape:window-x="-9"
     inkscape:window-y="-9"
     inkscape:window-maximized="1" />
  <g
     inkscape:groupmode="layer"
     id="layer4"
     inkscape:label="figure"
     transform="translate(888.76117,1169.3414)"
     style="display:inline"
     sodipodi:insensitive="true">
    <image
       width="400"
       height="705.59998"
       preserveAspectRatio="none"
       xlink:href="fig4.png"
       id="image1015"
       x="-888.76117"
       y="-1169.3414" />
  </g>
  <g
     inkscape:groupmode="layer"
     id="layer2"
     inkscape:label="x_axis"
     style="display:inline;opacity:1"
     transform="translate(888.76117,1169.3414)"
     sodipodi:insensitive="true">
    <path
       style="opacity:1;fill:none;fill-opacity:1;stroke:#ff0000;stroke-width:3;stroke-linecap:butt;stroke-miterlimit:4;stroke-dasharray:none;stroke-dashoffset:0;stroke-opacity:1;marker-end:url(#Arrow1Send)"
       d="m -824.70298,-491.14817 h 335.92579"
       id="path819"
       inkscape:connector-curvature="0"
       sodipodi:nodetypes="cc" />
    <g
       id="g1149"
       transform="translate(-923.84085,-879.77988)">
      <text
         id="text1115"
         y="403.3284"
         x="110.89665"
         style="font-style:normal;font-weight:normal;font-size:24px;line-height:125%;font-family:sans-serif;letter-spacing:0px;word-spacing:0px;fill:#000000;fill-opacity:1;stroke:none;stroke-width:1px;stroke-linecap:butt;stroke-linejoin:miter;stroke-opacity:1"
         xml:space="preserve"><tspan
           style="font-size:10.6667px"
           y="403.3284"
           x="110.89665"
           id="tspan1113"
           sodipodi:role="line">91</tspan></text>
      <path
         inkscape:connector-curvature="0"
         id="path1103"
         d="m 114.2925,380.61526 v 12.46996"
         style="opacity:1;fill:none;fill-opacity:1;stroke:#ff0000;stroke-width:3;stroke-linecap:butt;stroke-miterlimit:4;stroke-dasharray:none;stroke-dashoffset:0;stroke-opacity:1" />
    </g>
    <g
       transform="translate(-970.08956,-879.77988)"
       id="g1067">
      <text
         xml:space="preserve"
         style="font-style:normal;font-weight:normal;font-size:24px;line-height:125%;font-family:sans-serif;letter-spacing:0px;word-spacing:0px;fill:#000000;fill-opacity:1;stroke:none;stroke-width:1px;stroke-linecap:butt;stroke-linejoin:miter;stroke-opacity:1"
         x="430.69763"
         y="403.3284"
         id="text1063"><tspan
           sodipodi:role="line"
           id="tspan1061"
           x="430.69763"
           y="403.3284"
           style="font-size:10.6667px">244</tspan></text>
      <path
         style="opacity:1;fill:none;fill-opacity:1;stroke:#ff0000;stroke-width:3;stroke-linecap:butt;stroke-miterlimit:4;stroke-dasharray:none;stroke-dashoffset:0;stroke-opacity:1"
         d="m 437.55181,380.61526 v 12.46996"
         id="path1065"
         inkscape:connector-curvature="0" />
    </g>
  </g>
  <g
     inkscape:groupmode="layer"
     id="layer1"
     inkscape:label="y_axis"
     style="display:inline;opacity:1"
     transform="translate(888.76117,1169.3414)"
     sodipodi:insensitive="true">
    <path
       style="fill:none;fill-opacity:1;stroke:#ff0000;stroke-width:3;stroke-linecap:butt;stroke-miterlimit:4;stroke-dasharray:none;stroke-dashoffset:0;stroke-opacity:1;marker-end:url(#marker1182-0)"
       d="M -809.54835,-486.69466 V -1183.133"
       id="path1172"
       inkscape:connector-curvature="0"
       sodipodi:nodetypes="cc" />
    <g
       id="g1272"
       transform="translate(-914.0431,-849.47823)">
      <path
         inkscape:connector-curvature="0"
         id="path1208"
         d="M 98.259695,358.34747 H 110.72966"
         style="opacity:1;fill:none;fill-opacity:1;stroke:#ff0000;stroke-width:3;stroke-linecap:butt;stroke-miterlimit:4;stroke-dasharray:none;stroke-dashoffset:0;stroke-opacity:1" />
      <text
         id="text1222"
         y="363.19122"
         x="67.308731"
         style="font-style:normal;font-weight:normal;font-size:24px;line-height:125%;font-family:sans-serif;letter-spacing:0px;word-spacing:0px;fill:#000000;fill-opacity:1;stroke:none;stroke-width:1px;stroke-linecap:butt;stroke-linejoin:miter;stroke-opacity:1"
         xml:space="preserve"><tspan
           style="font-size:13.3333px"
           y="363.19122"
           x="67.308731"
           id="tspan1220"
           sodipodi:role="line">0</tspan></text>
    </g>
    <g
       id="g1020"
       transform="translate(-914.0431,-959.30962)">
      <path
         style="opacity:1;fill:none;fill-opacity:1;stroke:#ff0000;stroke-width:3;stroke-linecap:butt;stroke-miterlimit:4;stroke-dasharray:none;stroke-dashoffset:0;stroke-opacity:1"
         d="M 98.259695,299.30108 H 110.72966"
         id="path1014"
         inkscape:connector-curvature="0" />
      <text
         xml:space="preserve"
         style="font-style:normal;font-weight:normal;font-size:24px;line-height:125%;font-family:sans-serif;letter-spacing:0px;word-spacing:0px;fill:#000000;fill-opacity:1;stroke:none;stroke-width:1px;stroke-linecap:butt;stroke-linejoin:miter;stroke-opacity:1"
         x="59.78957"
         y="304.14484"
         id="text1018"><tspan
           sodipodi:role="line"
           id="tspan1016"
           x="59.78957"
           y="304.14484"
           style="font-size:13.3333px">60</tspan></text>
    </g>
  </g>
  <g
     inkscape:groupmode="layer"
     id="layer3"
     inkscape:label="sim"
     transform="translate(322.53545,88.076143)">
    <path
       style="fill:none;stroke:#000000;stroke-width:1px;stroke-linecap:butt;stroke-linejoin:miter;stroke-opacity:1"
       d="m -229.71706,548.58591 3.60459,-1.57701 1.8023,-12.39081 4.05518,-1.35172 0.90115,43.25517 2.92873,-45.95862 1.12644,-9.01149 2.25287,4.28046 1.35173,-15.54483 2.70344,-3.37931 1.35173,6.53333 2.02758,-4.95632 2.02759,-2.02759 2.02759,-14.64367 2.02758,0.45057 0.90115,21.17701 2.47816,-30.1885 2.25288,-0.22529 0.90115,48.88735 2.25287,-4.50574 1.12644,-46.63448 3.82988,6.53333 1.57701,27.25977 1.57701,-39.87586 4.05518,-4.95632 2.25287,4.28046 3.6046,-4.50575 1.12643,0.67586 h 3.37931 l 2.92874,-10.13793 2.02759,21.17701 3.15402,-23.88046 1.8023,1.8023 3.82988,-3.37931 1.35173,14.1931 2.47816,-12.16551 3.15402,8.11034 1.57701,-1.12644 0.90115,-9.23678 2.25287,-2.25287 2.47817,39.42529 1.35172,-41.0023 2.92873,8.33563 2.25288,-3.6046 4.28046,25.23219 2.25287,-24.78161 0.90115,5.40689 2.70345,2.92874 2.02759,6.08276 2.47816,-7.65977 2.25287,19.6 2.02759,-20.50115 4.28046,11.71494 1.57701,2.02759 1.12643,-1.35173 2.25288,1.35173 1.8023,-0.90115 1.12643,2.70344 2.47816,-2.47816 3.37931,2.70345 3.37931,-13.06666 1.8023,6.75862 1.57701,0.90115 2.25288,8.7862 4.05517,-16.89655 1.35172,6.30805 1.8023,-7.2092 2.02759,18.92414 1.8023,-10.58851 5.63218,-12.61609 0.90115,10.13793 2.02759,-3.82988 1.8023,6.53333 3.37931,-10.81379 2.02758,8.56092 2.70345,-22.97931 1.35172,33.11724 1.57702,-9.23678 5.63218,-15.77012 2.47816,3.37931 0.90115,13.29196 2.02759,-0.45058 2.25287,-3.82988 3.37931,-33.34253 3.37931,7.65977 1.8023,16.67126 2.47816,10.36322 1.57701,-4.50575 1.12644,-17.7977 1.8023,-0.22528 1.57701,23.42988 2.70345,-1.35172 1.35172,16.89655 2.02759,12.84138 2.92873,-52.71724 2.70345,8.11034 3.15402,-1.12644 4.28046,15.99541 1.12644,5.63218 2.47816,-3.15402 0.67586,-18.24828 2.02759,10.13793 3.6046,8.11035 2.25287,-12.61609 1.8023,21.62758 1.35172,-40.77701 2.47816,-8.11034 1.57701,20.27586 2.25288,2.25287 1.57701,-9.23678 2.02759,9.23678 1.80229,-13.51724 2.02759,15.31954 2.02759,-7.43448 2.47816,12.84138 2.92873,7.88505 0.67586,9.0115 2.70345,-11.71494 1.8023,3.15402 1.57701,-8.11035 0.90115,29.28736 2.92874,-24.78161 1.57701,1.12644 1.8023,49.33793 2.02758,-49.11265 2.47817,6.08276 1.12643,4.73104"
       id="path2709" />
  </g>
</svg>
