{
  "latitude": 43.6097,
  "latitude_comment": "coordinates of Melgueil INRAe station",
  "longitude": 3.9793,
  "longitude_comment": "coordinates of Melgueil INRAe station",
  "row_spacing": 6,
  "row_spacing_comment": "[m] Measured by hand in google earth",
  "inrow_spacing": 4,
  "inrow_spacing_comment": "[m] Measured by hand in google earth",
  "canopy_radius": 2,
  "canopy_radius_comment": "[m] approx measured by hand in google earth",
  "variety": "fuji",
  "variety_comment": "mat et met"
}