{
  ".coveragerc": {
    "coverage": "MEaOgf9xVWSC4ONsYuHM0fs5ZTY84/OdtSKycFeSP+6uXuOzbUdoE9TMZVUpcSIn7x4k3a0FuYlDbagZk0/73g=="
  },
  ".gitattributes": {},
  ".gitignore": {
    "git": "YdtuBgiebZYkx7gPnUrg80WPRfLMS9mGty7W3hFEzLlp+PDuNfiaAEbuqAAU7a1tCXWXxjBmPKuGcDeOQfrhYg==",
    "glabbase": "05dL5MMraIwcncxWu65atnC8QoWDIoeZwPGFe4NGugNU6lGfF5HKZ1+wtGuKVFgQARbc4/Uv4UTYyWFEtmBe3A=="
  },
  ".gitlab-ci.yml": {
    "glabbase.before": "71eK3GiwIpELtMkDyYpJSekqXNUXjwt0j+qWo9fh15j2fz2qtd8vuJj5tj/r3v4p2t09Et0ApU31D63FCgVtMQ==",
    "glabbase.image": "W6vyLsVpEFtBr33486EZJg/b3PlUbxuG3zwUdj8zlD9UUSMcuyKH2hltl82pXSf4Mi7tb5wulVxPOE1nk9E2TA==",
    "glabbase.stages": "b+jsaYyljn9N2c6bQ4tzUE0RvGXL3iTDDdguQH6728SPFkg0nwHuEX39ActAJoCub/LOgCcERW8UWKwQG073Aw==",
    "glabpkg_dev.before": "yE7E0uKj1orbMaO6vGdDDbFGHc2F75G7etNwDAAJUUnoTpNN/TenQv404w06TbKrJoZxv2WN8HqdKN5+Lc1Jmw==",
    "glabpkg_dev.pages": "hzcmoCRl4bmXWHwqVxRJUXr+AnbHP02ABF+VdU5CZw+aG+D7V3FyySONaPDEf31plB+rrFR+D4eh1Seyk7hY8Q==",
    "glabpkg_dev.stages": "ud0vGyEwLf57CU298RUcNP/gPK4W+M0luf63b9YhjYNRst/BV6toz2hrjQpl7mF/bqF27krAE5WlNNMDqSSEfw==",
    "glabpkg_dev.test": "9ZYwqi4Q9FNdDgf5ikoQHefNsRcXu7laui/Go4yAS+kv2JNB4ojKZJoFt2EJoGFxQNBTYpbHEChs7ZM/+XbCdw==",
    "glabpkg_dev.test_all": "D+MdxWjmMNGB1/o47BFpzoi87vwcUOEJ+Wn4WPEm39V4SrC1tClsibYCI/xkoW6ntsxwP7xOXrhWIrTi8WB7hw=="
  },
  ".gitlab/issue_templates/bug.md": {},
  ".gitlab/issue_templates/feature.md": {},
  ".gitlab/issue_templates/technical_task.md": {},
  ".pypirc": {
    "pypi.serverdescr": "d6B+Qvp4m8jn/exks3Rn+36F5CYJtuu7hnbIDZauGJVydBD8d2afBO1Pq0KNvhuDgx5x4tslaFISorNRxUqAXA==",
    "pypi.serverlist": "PC9SiM3/1x2vn66stkaGs8IZmA3C9zq9z6sBMLr74e3tdF5l0eBAZsagfMbQjPF+AW6evtXBtpEDMsF3dkjVHQ=="
  },
  "AUTHORS.rst": {
    "doc.authors": "/4DdVJ8b3rG94lfO9Lc7StWASvDQpuf73AL4vpQmxvi4N9ShPsMeP3Shwf6i2d3e4dvIUgDW1Mc0vUxg5LkbUw==",
    "doc.contributors": "J3DSW7KTgdo8oapZqBtZND/7nxY3IXay+rBR7ozFhOJKM047KgTFZPT/yFPdXFDnkAOisXboGHN5A1jNnTs++g=="
  },
  "CONTRIBUTING.rst": {},
  "HISTORY.rst": {},
  "LICENSE": {
    "license": "8T8OUqjlQha1L2WVIjMnlAuMC7QSOZ/Cft/ojnd+BkyKsbdSw6DAbXk1TlI6UvA8A23PQAb98UcVdMqO+ENkiw=="
  },
  "README.rst": {
    "doc": "zxYksg0iuu5St424S0+0XWW2m5RgusmvhXW8p+Wo1245xojcMgyzlFBk126NqBg06OysiYgF4fsHgKgVW1ZH9Q==",
    "glabpkg_dev": "kk2j/sL1QT8YG15D5euSI4KTReb1voQIzR5id8hx6Kq3pjnE1QG9QSqBkZ7Dc5wGinoAPH+xEEQWliChrF05AA=="
  },
  "conda/meta.yaml": {
    "conda.about": "yaoduHA/TbJ3dFIwxCWQFESuC1fmcmVC311eFbYiy+MB6uI/znIus4okIbjt5fer2uQ4oU0Cb42K3ING61axhA==",
    "conda.package": "JQaZ1DLRTtfndU5llEIIE66sYwg5OhAvNNF/2Kst9/hNuGC4Hz0iQfKQenoBpo36YSWeAH2k2/6Hty72Jm/nbQ==",
    "conda.req_build": "21mJUBrupQkwWVvht9oeAcxPY/9UxphvIYC16gdN1wbXVfmH/FkzYMmkQvY02Ev7g3+yqUG9HYPar36xoSLdjQ==",
    "conda.req_run": "R97RV2kpbCNY1frGOmCokKoaSbvYSCUm8BVMxB9i2uMYIvz+WndBoFaBomGLTkvI4e09RISbLYbsMetc/Hl7Aw==",
    "conda.src": "Lzbp176AVU0YantZQxB4LsR2jbxpZ/OlkvY2V4aWAEuzKEarh872uc1eRvsIYf/FsbxvcmUI84AezWlA72nI6A=="
  },
  "conda/requirements.yml": {
    "conda": "qHy17z1zKmfoS0oZfOdRL/TY5OuA2bOEFHKtYepX+C/vEtfV1UJMe3POyO+MwI2DbBelTqZ3gsASENx/OmYAHg=="
  },
  "conda/requirements_minimal.yml": {
    "conda": "bOQBnew8/c1Hfob1vbCVmJ8fi2WlFFO6T8JaWX61Rch+mUYqox2EO0/8xGL5B08M75B42Ttw5eRaq+OhCgNfUA=="
  },
  "doc/Makefile": {
    "sphinx": "EsaaEppe6Kw79WHpUyBigedrIraP6YlQDBg9Fu6jue32Rt6mCQkk2zH7gfOVqjT5bNpnXN90UfLkrzHVJCo6UQ=="
  },
  "doc/_static/nonempty.txt": {},
  "doc/authors.rst": {},
  "doc/badges/badge_doc.svg": {
    "glabpkg_dev": "KrAOCc4AelFFvqiGTii3mLryPRlBDXBQe55dDNjrw5SWa/r0cbrR+T9bkBwIY3OlYrI5xOtNf1U0qSymumGyHQ=="
  },
  "doc/badges/badge_pkging_conda.svg": {
    "glabpkg": "S2P1vc/Ly4kl5paC1YSxio3YL9CXFhXyMnR3q8cjCHH5NfAZcsXA7/a2ZLRpjNhGb7IyIAJy0JBkZlqx5kLgsg=="
  },
  "doc/badges/badge_pkging_pip.svg": {
    "glabpkg": "0IHPWY02mqa/3xHx22VEvBCKsgNIpVycARaf3PTo5OHeceC7+fW+P/CqHPYci99V3Y5/ufKD0fPmxTc4xyUoRA=="
  },
  "doc/badges/listing.rst": {
    "glabpkg": "rs4yROU5DdwnWeQyVLKpqta2/+p1We1P8r4RWx7R9DXwRf1ltUlXCnUZxlAjk8gchIfd+UpVNIfNaSKZkJp7Wg==",
    "glabpkg_dev": "w/qrxnIKJZGf1KrMHOj5M22uOD5GiS3a+LgxBtKm9PJa7IPl5nLlTBWqUq2Ywnsk76w+8OCCd4kgwQSCZtEroQ=="
  },
  "doc/biblio/biblio.rst": {},
  "doc/conf.py": {
    "sphinx": "ahCXCA7LcTvt/TGzp9Yg4jmgYuetVyFI30Pytmu7F3/aQyNMMk2NrGWgMYZVlo9PP2BIcOkV5i7NXPatvMvBcw=="
  },
  "doc/contributing.rst": {},
  "doc/history.rst": {},
  "doc/index.rst": {},
  "doc/installation.rst": {
    "glabpkg": "pNSl1JWMqqwgVVfGWQ5j2yMwfYQudCeuJZMLnFpbiMCnM9ZK3Ue0hnlDnmv7xROlyXNToVKB0PHBXbzpJQcB+w=="
  },
  "doc/make.bat": {
    "sphinx": "E9sFsnXAm9uPYBn7f0Qb6edct0UKizsXRIJyjZISRCjHbT2HldXK4GIj1yO69R/OVSfnmdAX5lzXQ4wONQNFgA=="
  },
  "doc/management.rst": {},
  "doc/readme.rst": {
    "glabpkg_dev": "HnkbGwRNlpGyhCMdKK/4n+Q82noyginjc9eOkFDQ87s4i7kIVJq3R7BsygfpDFARuzix8cIqptb7/hzO/J4GjQ=="
  },
  "doc/usage.rst": {},
  "doc/user/index.rst": {},
  "doc/user/overview.rst": {},
  "example/readme.rst": {},
  "pyproject.toml": {
    "pyproject.build": "I2LGHHOpCXWlR8y2Sb2cY5UG39iTOOrVRVdA911ZyiSQt5YGkno3LbeRNL4DxPeE9zgYef1R8FDKDPB3U6f79g==",
    "pyproject.gui_scripts": "VNRlO4ElRuynet0DT31hGYve1t2FV1CooE7f9Bi+PIRMF5YmdymGAS4Q6k4woJdDJ3JILO7ozz/yv4RpujFdQQ==",
    "pyproject.project": "VpkwVT/QtgDO5iWFVgftTGfjEx6DjdloiL/XOEzpQcLZRCElHFYJeRN3BXK7YDzdgxdziGOtgTmn2FF1Kt9e1g==",
    "pyproject.scripts": "nxzQt1CUNkpQiiU7Ajxf8abPXHZurGnQFv5j+v5nxAM9VwHmddCFUclVMs+nAk+DSBoFCOFU4k2hboyksj2e3Q==",
    "test": "la8e6xBJ808kI1HvZ9gSHskahETk7K09eDj4lvKCx7Yke6kH2Hbs6F5Cqy2DIYCEzrwQkeyOX3SdaRvEbVG2yA=="
  },
  "raw/readme.rst": {},
  "requirements.txt": {
    "reqs": "t93e0f9ZtscMNfRbDSkw2VfHIhHQtK+oA7K2Vv1MAPHabU3jycta8BM2HnsQtW4qFT1AMJ7ngFb8xO9Qk7aPbg=="
  },
  "requirements_minimal.txt": {
    "reqs": "AWuoxM/eZa+Zy1+ouKN+Lrc/SBs640mRZm3y4E/rbAOGZuvR7CtvYjlndWAzxwLd5fQj99R6tu0YJ/9TeDcx9w=="
  },
  "script/readme.rst": {},
  "src/pallas2016/__init__.py": {
    "glabdata": "NcZRz+yBeeoU3y12dw+wm0e8ukqIl0AfwFA5aEzPj+VPfUclV0E1UEO6Aj7cERLoRgsE6GwQjzVth7xgyRN6Ww==",
    "src": "L2dZgUBRC5qv3o09+1CbMcgYfQtR1ZNSvP8KlP8REQazZiAQAktALjpCC2ijdxvKPv/tN9KsZrzNW+lZMszSfg==",
    "version": "skSCnavrYKIlfN9Mpi+cANbU8gXulaKdlHryvkjkoSSpsag1I66dM+6JHm1aOdmKYU0rZNNgcIamCMbIL7IeMg=="
  },
  "src/pallas2016/clean/readme.rst": {},
  "src/pallas2016/info.py": {},
  "src/pallas2016/version.py": {
    "version": "bPhfROYTNT2Mfya4KC4Gez8S9ZFK8DZnVkZxmjl2B+uKjLALo7/6vDFWrlXXDlni7KGbH5zllXY9AQTq7jRJtQ=="
  },
  "test/conftest.py": {
    "test.pytest_addoption": "I/hswVryIEYvZRBcFqkfRBxLP6eZCwZSbQuPclkOkjHw4MApBst5h7H0ejnMMe4bmwHXMXR5DCSxOMj/FcCnjQ==",
    "test.pytest_cmdline_preparse": "fJBA00liQPlM5wC6ZWlOABlgYbesIabSfBbKuMj1frOIqHCwYPG0RRDZghL0M27mvvjfclrmtmifYseLTWNe/A==",
    "test.pytest_collection": "a/3h30sLUHJ7xWsOrmfCInOOVXvm660dS+RxHwcDUcae2jHqDLRGhq/v8zgC+FSzN3pXaEaJ1QBJ9MNLOUBuCA==",
    "test.pytest_configure": "SjyTXdrRadJNWhVFYkAvXekjOqNtovwqKNizWD35oZ9XVmsdB/B+lQDzXNPZQ0D5flFpSEURUiGqIvifgEKZ9Q==",
    "test.pytest_import": "2ox6A0szNpUYZR5cJJRSW3OwEWR558BOiUMjC/OVkTPT++CF/OCgGSELCPL+7YHWaJGQKMw2rtCXmOMeSK5ZJA=="
  },
  "test/test_packaging.py": {
    "glabdata": "0a3QMxO39x2cyB7UJxQ+PzZAhsjbUaAPLVZ3AlLJOpfZd0RqJVEFkY4cbgPLzRXjWPvMRF9RQCvBBOs1bwpTWw==",
    "glabpkg_dev": "6ZHLT6ABbATubjfVQTgxkj4tcP+GSR9Gh3dEhVoiK4cTS5eW1qh1XPIWOHCwevz9qR2P6nllDwWpCR6RJRGkoQ=="
  }
}